{
  "$schema": "http://json-schema.org/draft-07/schema#",
  "description": "Application Settings for search",
  "type": "object",
  "additionalProperties": false,
  "properties": {
    "global_search_code_enabled": {
      "type": "boolean",
      "description": "Enable global search for code"
    },
    "global_search_commits_enabled": {
      "type": "boolean",
      "description": "Enable global search for commits"
    },
    "global_search_merge_requests_enabled": {
      "type": "boolean",
      "description": "Enable global search for merge requests"
    },
    "global_search_work_items_enabled": {
      "type": "boolean",
      "description": "Enable global search for work items"
    },
    "global_search_wiki_enabled": {
      "type": "boolean",
      "description": "Enable global search for wikis"
    },
    "global_search_users_enabled": {
      "type": "boolean",
      "description": "Enable global search for users"
    },
    "global_search_snippet_titles_enabled": {
      "type": "boolean",
      "description": "Enable global search for snippets"
    }
  }
}
